[
  {
    "line": 1,
    "elements": [
      {
        "BDD_TESTRUN_UUID": "59347723-5c8b-41f4-b2fc-d93387a4948f",
        "line": 3,
        "name": "loginPage",
        "description": "",
        "id": "loginpage;loginpage",
        "type": "scenario",
        "keyword": "Scenario",
        "steps": [
          {
            "result": {
              "duration": 6415427600,
              "status": "passed"
            },
            "line": 4,
            "name": "user go to login page hijra",
            "match": {
              "location": "hijraLogin.user_go_to_login_page_hijra()"
            },
            "keyword": "Given ",
            "BDD_STEP_UUID": "142068b1-d371-44ee-8755-fdc510eff1de"
          },
          {
            "result": {
              "duration": 2272019200,
              "status": "passed"
            },
            "line": 5,
            "name": "user input username",
            "match": {
              "location": "hijraLogin.user_input_username()"
            },
            "keyword": "When ",
            "BDD_STEP_UUID": "6bd51ba0-14d3-4d31-8973-3f291d5e2497"
          },
          {
            "result": {
              "duration": 1748937800,
              "status": "passed"
            },
            "line": 6,
            "name": "user input password",
            "match": {
              "location": "hijraLogin.user_input_password()"
            },
            "keyword": "Then ",
            "BDD_STEP_UUID": "a39fc0b0-d8e9-4f88-8f76-0bd59856263a"
          },
          {
            "result": {
              "duration": 4110200600,
              "status": "passed"
            },
            "line": 7,
            "name": "user klik login",
            "match": {
              "location": "hijraLogin.user_klik_login()"
            },
            "keyword": "And ",
            "BDD_STEP_UUID": "19586ef9-b052-4a1d-b8fc-dbd38cc6e08f"
          }
        ]
      }
    ],
    "name": "loginPage",
    "description": "",
    "id": "loginpage",
    "keyword": "Feature",
    "uri": "C:/Users/arief.hakim/git/alami/auto-test-backoffice/./Include/features/Hijra/loginPage.feature",
    "tags": []
  }
]